<svg width="512" height="512" viewBox="0 0 512 512" fill="none" xmlns="http://www.w3.org/2000/svg">
<path d="M104.811 56.704C149.077 50.944 194.197 48 240 48C285.803 48 330.923 50.9653 375.189 56.704C416.192 62.0373 445.397 96.4053 447.829 136.213C440.697 133.837 433.306 132.326 425.813 131.712C366.041 126.75 305.959 126.75 246.187 131.712C195.883 135.893 160 178.432 160 226.304V317.739C159.98 335.313 164.817 352.55 173.976 367.548C183.135 382.547 196.261 394.722 211.904 402.731L155.307 459.307C153.069 461.541 150.219 463.063 147.118 463.679C144.016 464.295 140.801 463.979 137.879 462.769C134.957 461.559 132.459 459.51 130.701 456.882C128.943 454.253 128.003 451.162 128 448V362.027C120.26 361.204 112.53 360.293 104.811 359.296C61.9733 353.707 32 316.437 32 274.389V141.611C32 99.584 61.9733 62.2933 104.811 56.7253V56.704Z" fill="#3B82F6"/>
<path d="M336 160C306.645 160 277.568 161.216 248.832 163.605C215.979 166.336 192 194.197 192 226.325V317.739C192 349.888 216.064 377.771 248.96 380.459C275.477 382.635 302.293 383.808 329.344 383.979L388.693 443.307C390.931 445.541 393.781 447.063 396.882 447.679C399.984 448.295 403.199 447.979 406.121 446.769C409.043 445.559 411.541 443.51 413.299 440.882C415.057 438.253 415.997 435.162 416 432V381.013L423.04 380.459C455.936 377.792 480 349.888 480 317.739V226.304C480 194.197 456 166.336 423.168 163.584C394.174 161.186 365.093 159.991 336 160V160Z" fill="#3B82F6"/>
</svg>
