2024-02-19 23:51:22,416:DEBUG:certbot._internal.main:certbot version: 1.32.0
2024-02-19 23:51:22,416:DEBUG:certbot._internal.main:Location of certbot entry point: /usr/local/bin/certbot
2024-02-19 23:51:22,416:DEBUG:certbot._internal.main:Arguments: []
2024-02-19 23:51:22,416:DEBUG:certbot._internal.main:Discovered plugins: PluginsRegistry(PluginEntryPoint#manual,PluginEntryPoint#null,PluginEntryPoint#standalone,PluginEntryPoint#webroot)
2024-02-19 23:51:22,457:DEBUG:certbot._internal.log:Root logging level set at 30
2024-02-19 23:51:22,466:DEBUG:certbot._internal.display.obj:Notifying user: Processing /etc/letsencrypt/renewal/coridigital.com-0001.conf
2024-02-19 23:51:22,500:DEBUG:certbot._internal.plugins.selection:Requested authenticator <certbot._internal.cli.cli_utils._Default object at 0x7f43be0bcca0> and installer <certbot._internal.cli.cli_utils._Default object at 0x7f43be0bcca0>
2024-02-19 23:51:22,556:DEBUG:urllib3.connectionpool:Starting new HTTP connection (1): r3.o.lencr.org:80
2024-02-19 23:51:22,701:DEBUG:urllib3.connectionpool:http://r3.o.lencr.org:80 "POST / HTTP/1.1" 200 503
2024-02-19 23:51:22,703:DEBUG:certbot.ocsp:OCSP response for certificate /etc/letsencrypt/archive/coridigital.com-0001/cert9.pem is signed by the certificate's issuer.
2024-02-19 23:51:22,704:DEBUG:certbot.ocsp:OCSP certificate status for /etc/letsencrypt/archive/coridigital.com-0001/cert9.pem is: OCSPCertStatus.GOOD
2024-02-19 23:51:22,708:DEBUG:certbot._internal.display.obj:Notifying user: Certificate not yet due for renewal
2024-02-19 23:51:22,711:DEBUG:certbot._internal.plugins.selection:Requested authenticator webroot and installer None
2024-02-19 23:51:22,711:DEBUG:certbot._internal.display.obj:Notifying user: Processing /etc/letsencrypt/renewal/coridigital.com.conf
2024-02-19 23:51:22,746:DEBUG:urllib3.connectionpool:Starting new HTTP connection (1): r3.o.lencr.org:80
2024-02-19 23:51:22,852:DEBUG:urllib3.connectionpool:http://r3.o.lencr.org:80 "POST / HTTP/1.1" 200 503
2024-02-19 23:51:22,853:DEBUG:certbot.ocsp:OCSP response for certificate /etc/letsencrypt/archive/coridigital.com-0001/cert9.pem is signed by the certificate's issuer.
2024-02-19 23:51:22,854:DEBUG:certbot.ocsp:OCSP certificate status for /etc/letsencrypt/archive/coridigital.com-0001/cert9.pem is: OCSPCertStatus.GOOD
2024-02-19 23:51:22,856:DEBUG:certbot._internal.display.obj:Notifying user: Certificate not yet due for renewal
2024-02-19 23:51:22,857:DEBUG:certbot._internal.plugins.selection:Requested authenticator webroot and installer None
2024-02-19 23:51:22,858:DEBUG:certbot._internal.display.obj:Notifying user: 
- - - - - - - - - - - - - - - - - - - - - - - - - - - - - - - - - - - - - - - -
2024-02-19 23:51:22,858:DEBUG:certbot._internal.display.obj:Notifying user: The following certificates are not due for renewal yet:
2024-02-19 23:51:22,859:DEBUG:certbot._internal.display.obj:Notifying user:   /etc/letsencrypt/live/coridigital.com-0001/fullchain.pem expires on 2024-03-31 (skipped)
  /etc/letsencrypt/live/coridigital.com/fullchain.pem expires on 2024-03-31 (skipped)
2024-02-19 23:51:22,859:DEBUG:certbot._internal.display.obj:Notifying user: No renewals were attempted.
2024-02-19 23:51:22,859:DEBUG:certbot._internal.display.obj:Notifying user: - - - - - - - - - - - - - - - - - - - - - - - - - - - - - - - - - - - - - - - -
2024-02-19 23:51:22,862:DEBUG:certbot._internal.renewal:no renewal failures
