2024-02-19 04:04:28,841:DEBUG:certbot._internal.main:certbot version: 1.32.0
2024-02-19 04:04:28,841:DEBUG:certbot._internal.main:Location of certbot entry point: /usr/local/bin/certbot
2024-02-19 04:04:28,841:DEBUG:certbot._internal.main:Arguments: []
2024-02-19 04:04:28,841:DEBUG:certbot._internal.main:Discovered plugins: PluginsRegistry(PluginEntryPoint#manual,PluginEntryPoint#null,PluginEntryPoint#standalone,PluginEntryPoint#webroot)
2024-02-19 04:04:28,854:DEBUG:certbot._internal.log:Root logging level set at 30
2024-02-19 04:04:28,855:DEBUG:certbot._internal.display.obj:Notifying user: Processing /etc/letsencrypt/renewal/coridigital.com-0001.conf
2024-02-19 04:04:28,873:DEBUG:certbot._internal.plugins.selection:Requested authenticator <certbot._internal.cli.cli_utils._Default object at 0x7f858db50cd0> and installer <certbot._internal.cli.cli_utils._Default object at 0x7f858db50cd0>
2024-02-19 04:04:28,892:DEBUG:urllib3.connectionpool:Starting new HTTP connection (1): r3.o.lencr.org:80
2024-02-19 04:04:28,990:DEBUG:urllib3.connectionpool:http://r3.o.lencr.org:80 "POST / HTTP/1.1" 200 503
2024-02-19 04:04:28,991:DEBUG:certbot.ocsp:OCSP response for certificate /etc/letsencrypt/archive/coridigital.com-0001/cert9.pem is signed by the certificate's issuer.
2024-02-19 04:04:28,992:DEBUG:certbot.ocsp:OCSP certificate status for /etc/letsencrypt/archive/coridigital.com-0001/cert9.pem is: OCSPCertStatus.GOOD
2024-02-19 04:04:28,996:DEBUG:certbot._internal.display.obj:Notifying user: Certificate not yet due for renewal
2024-02-19 04:04:28,997:DEBUG:certbot._internal.plugins.selection:Requested authenticator webroot and installer None
2024-02-19 04:04:28,997:DEBUG:certbot._internal.display.obj:Notifying user: Processing /etc/letsencrypt/renewal/coridigital.com.conf
2024-02-19 04:04:29,013:DEBUG:urllib3.connectionpool:Starting new HTTP connection (1): r3.o.lencr.org:80
2024-02-19 04:04:29,100:DEBUG:urllib3.connectionpool:http://r3.o.lencr.org:80 "POST / HTTP/1.1" 200 503
2024-02-19 04:04:29,101:DEBUG:certbot.ocsp:OCSP response for certificate /etc/letsencrypt/archive/coridigital.com-0001/cert9.pem is signed by the certificate's issuer.
2024-02-19 04:04:29,102:DEBUG:certbot.ocsp:OCSP certificate status for /etc/letsencrypt/archive/coridigital.com-0001/cert9.pem is: OCSPCertStatus.GOOD
2024-02-19 04:04:29,104:DEBUG:certbot._internal.display.obj:Notifying user: Certificate not yet due for renewal
2024-02-19 04:04:29,105:DEBUG:certbot._internal.plugins.selection:Requested authenticator webroot and installer None
2024-02-19 04:04:29,105:DEBUG:certbot._internal.display.obj:Notifying user: 
- - - - - - - - - - - - - - - - - - - - - - - - - - - - - - - - - - - - - - - -
2024-02-19 04:04:29,105:DEBUG:certbot._internal.display.obj:Notifying user: The following certificates are not due for renewal yet:
2024-02-19 04:04:29,105:DEBUG:certbot._internal.display.obj:Notifying user:   /etc/letsencrypt/live/coridigital.com-0001/fullchain.pem expires on 2024-03-31 (skipped)
  /etc/letsencrypt/live/coridigital.com/fullchain.pem expires on 2024-03-31 (skipped)
2024-02-19 04:04:29,105:DEBUG:certbot._internal.display.obj:Notifying user: No renewals were attempted.
2024-02-19 04:04:29,105:DEBUG:certbot._internal.display.obj:Notifying user: - - - - - - - - - - - - - - - - - - - - - - - - - - - - - - - - - - - - - - - -
2024-02-19 04:04:29,105:DEBUG:certbot._internal.renewal:no renewal failures
