2024-02-19 16:04:29,795:DEBUG:certbot._internal.main:certbot version: 1.32.0
2024-02-19 16:04:29,796:DEBUG:certbot._internal.main:Location of certbot entry point: /usr/local/bin/certbot
2024-02-19 16:04:29,796:DEBUG:certbot._internal.main:Arguments: []
2024-02-19 16:04:29,796:DEBUG:certbot._internal.main:Discovered plugins: PluginsRegistry(PluginEntryPoint#manual,PluginEntryPoint#null,PluginEntryPoint#standalone,PluginEntryPoint#webroot)
2024-02-19 16:04:29,809:DEBUG:certbot._internal.log:Root logging level set at 30
2024-02-19 16:04:29,810:DEBUG:certbot._internal.display.obj:Notifying user: Processing /etc/letsencrypt/renewal/coridigital.com-0001.conf
2024-02-19 16:04:29,826:DEBUG:certbot._internal.plugins.selection:Requested authenticator <certbot._internal.cli.cli_utils._Default object at 0x7fac6dfd8f10> and installer <certbot._internal.cli.cli_utils._Default object at 0x7fac6dfd8f10>
2024-02-19 16:04:29,845:DEBUG:urllib3.connectionpool:Starting new HTTP connection (1): r3.o.lencr.org:80
2024-02-19 16:04:29,942:DEBUG:urllib3.connectionpool:http://r3.o.lencr.org:80 "POST / HTTP/1.1" 200 503
2024-02-19 16:04:29,944:DEBUG:certbot.ocsp:OCSP response for certificate /etc/letsencrypt/archive/coridigital.com-0001/cert9.pem is signed by the certificate's issuer.
2024-02-19 16:04:29,945:DEBUG:certbot.ocsp:OCSP certificate status for /etc/letsencrypt/archive/coridigital.com-0001/cert9.pem is: OCSPCertStatus.GOOD
2024-02-19 16:04:29,948:DEBUG:certbot._internal.display.obj:Notifying user: Certificate not yet due for renewal
2024-02-19 16:04:29,949:DEBUG:certbot._internal.plugins.selection:Requested authenticator webroot and installer None
2024-02-19 16:04:29,950:DEBUG:certbot._internal.display.obj:Notifying user: Processing /etc/letsencrypt/renewal/coridigital.com.conf
2024-02-19 16:04:29,966:DEBUG:urllib3.connectionpool:Starting new HTTP connection (1): r3.o.lencr.org:80
2024-02-19 16:04:29,988:DEBUG:urllib3.connectionpool:http://r3.o.lencr.org:80 "POST / HTTP/1.1" 200 503
2024-02-19 16:04:29,989:DEBUG:certbot.ocsp:OCSP response for certificate /etc/letsencrypt/archive/coridigital.com-0001/cert9.pem is signed by the certificate's issuer.
2024-02-19 16:04:29,990:DEBUG:certbot.ocsp:OCSP certificate status for /etc/letsencrypt/archive/coridigital.com-0001/cert9.pem is: OCSPCertStatus.GOOD
2024-02-19 16:04:29,991:DEBUG:certbot._internal.display.obj:Notifying user: Certificate not yet due for renewal
2024-02-19 16:04:29,993:DEBUG:certbot._internal.plugins.selection:Requested authenticator webroot and installer None
2024-02-19 16:04:29,993:DEBUG:certbot._internal.display.obj:Notifying user: 
- - - - - - - - - - - - - - - - - - - - - - - - - - - - - - - - - - - - - - - -
2024-02-19 16:04:29,993:DEBUG:certbot._internal.display.obj:Notifying user: The following certificates are not due for renewal yet:
2024-02-19 16:04:29,993:DEBUG:certbot._internal.display.obj:Notifying user:   /etc/letsencrypt/live/coridigital.com-0001/fullchain.pem expires on 2024-03-31 (skipped)
  /etc/letsencrypt/live/coridigital.com/fullchain.pem expires on 2024-03-31 (skipped)
2024-02-19 16:04:29,993:DEBUG:certbot._internal.display.obj:Notifying user: No renewals were attempted.
2024-02-19 16:04:29,993:DEBUG:certbot._internal.display.obj:Notifying user: - - - - - - - - - - - - - - - - - - - - - - - - - - - - - - - - - - - - - - - -
2024-02-19 16:04:29,993:DEBUG:certbot._internal.renewal:no renewal failures
