Started at Wed May 11 20:10:57 UTC 2022
Processing job_cloud
Offering job_cloud to Project Build Discarder
Processing job_cloud_2
Offering job_cloud_2 to Project Build Discarder
Finished at Wed May 11 20:10:57 UTC 2022. 3ms
Started at Wed May 11 23:32:16 UTC 2022
Processing job_cloud
Offering job_cloud to Project Build Discarder
Processing job_cloud_2
Offering job_cloud_2 to Project Build Discarder
Finished at Wed May 11 23:32:16 UTC 2022. 10ms
Started at Thu May 12 15:23:06 UTC 2022
Processing job_cloud
Offering job_cloud to Project Build Discarder
Processing job_cloud_2
Offering job_cloud_2 to Project Build Discarder
Finished at Thu May 12 15:23:06 UTC 2022. 10ms
Started at Thu May 12 16:23:07 UTC 2022
Processing job_cloud
Offering job_cloud to Project Build Discarder
Processing job_cloud_2
Offering job_cloud_2 to Project Build Discarder
Finished at Thu May 12 16:23:07 UTC 2022. 3ms
Started at Thu May 12 17:23:07 UTC 2022
Processing job_cloud
Offering job_cloud to Project Build Discarder
Processing job_cloud_2
Offering job_cloud_2 to Project Build Discarder
Finished at Thu May 12 17:23:07 UTC 2022. 10ms
Started at Thu May 12 18:23:07 UTC 2022
Processing job_cloud
Offering job_cloud to Project Build Discarder
Processing job_cloud_2
Offering job_cloud_2 to Project Build Discarder
Finished at Thu May 12 18:23:07 UTC 2022. 1ms
Started at Thu May 12 19:23:07 UTC 2022
Processing job_cloud
Offering job_cloud to Project Build Discarder
Processing job_cloud_2
Offering job_cloud_2 to Project Build Discarder
Finished at Thu May 12 19:23:07 UTC 2022. 10ms
