Started at Thu May 12 20:35:06 UTC 2022
Processing job_cloud
Offering job_cloud to Project Build Discarder
Processing job_cloud_2
Offering job_cloud_2 to Project Build Discarder
Finished at Thu May 12 20:35:06 UTC 2022. 4ms
Started at Thu May 12 23:31:40 UTC 2022
Processing job_cloud
Offering job_cloud to Project Build Discarder
Processing job_cloud_2
Offering job_cloud_2 to Project Build Discarder
Finished at Thu May 12 23:31:40 UTC 2022. 2ms
